{
  "project_info": {
    "project_number": "124050072173",
    "firebase_url": "https://linku-86be6.firebaseio.com",
    "project_id": "linku-86be6",
    "storage_bucket": "linku-86be6.appspot.com"
  },
  "client": [
    {
      "client_info": {
        "mobilesdk_app_id": "1:124050072173:android:3795ce31144e049a",
        "android_client_info": {
          "package_name": "com.firewood.pary"
        }
      },
      "oauth_client": [
        {
          "client_id": "124050072173-t3kesad83u8ricbsaup0ult7btqbb16b.apps.googleusercontent.com",
          "client_type": 1,
          "android_info": {
            "package_name": "com.firewood.pary",
            "certificate_hash": "32F527A3AD20ACFBA644C10EFE7AAB7A27365CBA"
          }
        },
        {
          "client_id": "124050072173-jp7hglkfufs7us63m1m05a5flg23m04b.apps.googleusercontent.com",
          "client_type": 1,
          "android_info": {
            "package_name": "com.firewood.pary",
            "certificate_hash": "4CFA6DD4F5FADBA3A558F8898B7CF34C87FFD9EA"
          }
        },
        {
          "client_id": "124050072173-b4nmpvs5rc5vj266b5f23cirleb9elis.apps.googleusercontent.com",
          "client_type": 1,
          "android_info": {
            "package_name": "com.firewood.pary",
            "certificate_hash": "33F0AB4A70ABA709DE61D36822182617D55634B9"
          }
        },
        {
          "client_id": "124050072173-vno7b854h7qbi3sbh1ek6vrt7n1nt5jr.apps.googleusercontent.com",
          "client_type": 3
        }
      ],
      "api_key": [
        {
          "current_key": "AIzaSyBDYtjGrxLwpsNsYxvI2DRojB06pG5xnXg"
        }
      ],
      "services": {
        "analytics_service": {
          "status": 1
        },
        "appinvite_service": {
          "status": 2,
          "other_platform_oauth_client": [
            {
              "client_id": "124050072173-vno7b854h7qbi3sbh1ek6vrt7n1nt5jr.apps.googleusercontent.com",
              "client_type": 3
            },
            {
              "client_id": "124050072173-v6kkioiuthijo6vdd0ooq2ice23ebct7.apps.googleusercontent.com",
              "client_type": 2,
              "ios_info": {
                "bundle_id": "com.jdc2.linkU"
              }
            }
          ]
        },
        "ads_service": {
          "status": 2
        }
      }
    }
  ],
  "configuration_version": "1"
}